{"albums": {"href": "https://api.spotify.com/v1/browse/new-releases?country=GB&offset=5&limit=10", "items": [{"album_type": "single", "artists": [{"external_urls": {"spotify": "https://open.spotify.com/artist/7uwY65fDg3FVJ8MkJ5QuZK"}, "href": "https://api.spotify.com/v1/artists/7uwY65fDg3FVJ8MkJ5QuZK", "id": "7uwY65fDg3FVJ8MkJ5QuZK", "name": "Easy Life", "type": "artist", "uri": "spotify:artist:7uwY65fDg3FVJ8MkJ5QuZK"}], "available_markets": ["AD", "AE", "AR", "AT", "AU", "BE", "BG", "BH", "BO", "BR", "CA", "CH", "CL", "CO", "CR", "CY", "CZ", "DE", "DK", "DO", "DZ", "EC", "EE", "EG", "ES", "FI", "FR", "GB", "GR", "GT", "HK", "HN", "HU", "ID", "IE", "IL", "IN", "IS", "IT", "JO", "JP", "KW", "LB", "LI", "LT", "LU", "LV", "MA", "MC", "MT", "MX", "MY", "NI", "NL", "NO", "NZ", "OM", "PA", "PE", "PH", "PL", "PS", "PT", "PY", "QA", "RO", "SA", "SE", "SG", "SK", "SV", "TH", "TN", "TR", "TW", "US", "UY", "VN", "ZA"], "external_urls": {"spotify": "https://open.spotify.com/album/0T2Sjoi1JGYf170aJdos0j"}, "href": "https://api.spotify.com/v1/albums/0T2Sjoi1JGYf170aJdos0j", "id": "0T2Sjoi1JGYf170aJdos0j", "images": [{"height": 640, "url": "https://i.scdn.co/image/6fb658cb73ec31a0f8d83dac15928cad73f175a9", "width": 640}, {"height": 300, "url": "https://i.scdn.co/image/5922f7c44a88a96faa4a6bda979247b8fb295e71", "width": 300}, {"height": 64, "url": "https://i.scdn.co/image/9b3b3548978851552ae82970d827b8679a1f2c5e", "width": 64}], "name": "Junk Food", "release_date": "2020-01-10", "release_date_precision": "day", "total_tracks": 7, "type": "album", "uri": "spotify:album:0T2Sjoi1JGYf170aJdos0j"}, {"album_type": "album", "artists": [{"external_urls": {"spotify": "https://open.spotify.com/artist/27gtK7m9vYwCyJ04zz0kIb"}, "href": "https://api.spotify.com/v1/artists/27gtK7m9vYwCyJ04zz0kIb", "id": "27gtK7m9vYwCyJ04zz0kIb", "name": "Lane 8", "type": "artist", "uri": "spotify:artist:27gtK7m9vYwCyJ04zz0kIb"}], "available_markets": ["AD", "AE", "AR", "AT", "AU", "BE", "BG", "BH", "BO", "BR", "CA", "CH", "CL", "CO", "CR", "CY", "CZ", "DE", "DK", "DO", "DZ", "EC", "EE", "EG", "ES", "FI", "FR", "GB", "GR", "GT", "HK", "HN", "HU", "ID", "IE", "IL", "IN", "IS", "IT", "JO", "JP", "KW", "LB", "LI", "LT", "LU", "LV", "MA", "MC", "MT", "MX", "MY", "NI", "NL", "NO", "NZ", "OM", "PA", "PE", "PH", "PL", "PS", "PT", "PY", "QA", "RO", "SA", "SE", "SG", "SK", "SV", "TH", "TN", "TR", "TW", "US", "UY", "VN", "ZA"], "external_urls": {"spotify": "https://open.spotify.com/album/6EdbqQvOCialJuOjEEUlsL"}, "href": "https://api.spotify.com/v1/albums/6EdbqQvOCialJuOjEEUlsL", "id": "6EdbqQvOCialJuOjEEUlsL", "images": [{"height": 640, "url": "https://i.scdn.co/image/8f12ac6910ae5607bb54a47f06ecd72f089ef810", "width": 640}, {"height": 300, "url": "https://i.scdn.co/image/6a013c7093be2069130bec0e9c1b58b779d7248e", "width": 300}, {"height": 64, "url": "https://i.scdn.co/image/ca59394c6749949b1964e86ebebdb962fed4533b", "width": 64}], "name": "Brightest Lights", "release_date": "2020-01-10", "release_date_precision": "day", "total_tracks": 14, "type": "album", "uri": "spotify:album:6EdbqQvOCialJuOjEEUlsL"}, {"album_type": "album", "artists": [{"external_urls": {"spotify": "https://open.spotify.com/artist/6OTr0YwLwGdv7mlmX27hRX"}, "href": "https://api.spotify.com/v1/artists/6OTr0YwLwGdv7mlmX27hRX", "id": "6OTr0YwLwGdv7mlmX27hRX", "name": "Sheku Kanneh-Mason", "type": "artist", "uri": "spotify:artist:6OTr0YwLwGdv7mlmX27hRX"}, {"external_urls": {"spotify": "https://open.spotify.com/artist/5yxyJsFanEAuwSM5kOuZKc"}, "href": "https://api.spotify.com/v1/artists/5yxyJsFanEAuwSM5kOuZKc", "id": "5yxyJsFanEAuwSM5kOuZKc", "name": "London Symphony Orchestra", "type": "artist", "uri": "spotify:artist:5yxyJsFanEAuwSM5kOuZKc"}, {"external_urls": {"spotify": "https://open.spotify.com/artist/4GQwgdcDQwqtcHICjUNndp"}, "href": "https://api.spotify.com/v1/artists/4GQwgdcDQwqtcHICjUNndp", "id": "4GQwgdcDQwqtcHICjUNndp", "name": "Sir Simon Rattle", "type": "artist", "uri": "spotify:artist:4GQwgdcDQwqtcHICjUNndp"}], "available_markets": ["AD", "AE", "AR", "AT", "AU", "BE", "BG", "BH", "BO", "BR", "CA", "CH", "CL", "CO", "CR", "CY", "CZ", "DE", "DK", "DO", "DZ", "EC", "EE", "EG", "ES", "FI", "FR", "GB", "GR", "GT", "HK", "HN", "HU", "ID", "IE", "IL", "IN", "IS", "IT", "JO", "JP", "KW", "LB", "LI", "LT", "LU", "LV", "MA", "MC", "MT", "MX", "MY", "NI", "NL", "NO", "NZ", "OM", "PA", "PE", "PH", "PL", "PS", "PT", "PY", "QA", "RO", "SA", "SE", "SG", "SK", "SV", "TH", "TN", "TR", "TW", "US", "UY", "VN", "ZA"], "external_urls": {"spotify": "https://open.spotify.com/album/3PwJLGFcKrecmaRbJQYMSg"}, "href": "https://api.spotify.com/v1/albums/3PwJLGFcKrecmaRbJQYMSg", "id": "3PwJLGFcKrecmaRbJQYMSg", "images": [{"height": 640, "url": "https://i.scdn.co/image/0ed8f1233fe66c6acf36b3ac6ac0ee724eab802b", "width": 640}, {"height": 300, "url": "https://i.scdn.co/image/5b61733442c46058ebf1b110985c2673583bdfa1", "width": 300}, {"height": 64, "url": "https://i.scdn.co/image/bdccfee8b0abde1a78d27ebf54c817194978182d", "width": 64}], "name": "Elgar", "release_date": "2020-01-10", "release_date_precision": "day", "total_tracks": 13, "type": "album", "uri": "spotify:album:3PwJLGFcKrecmaRbJQYMSg"}, {"album_type": "album", "artists": [{"external_urls": {"spotify": "https://open.spotify.com/artist/6hl5k4gLl1p3sjhHcb57t2"}, "href": "https://api.spotify.com/v1/artists/6hl5k4gLl1p3sjhHcb57t2", "id": "6hl5k4gLl1p3sjhHcb57t2", "name": "Circa Waves", "type": "artist", "uri": "spotify:artist:6hl5k4gLl1p3sjhHcb57t2"}], "available_markets": ["AD", "AE", "AR", "AT", "AU", "BE", "BG", "BH", "BO", "BR", "CA", "CH", "CL", "CO", "CR", "CY", "CZ", "DE", "DK", "DO", "DZ", "EC", "EE", "EG", "ES", "FI", "FR", "GB", "GR", "GT", "HK", "HN", "HU", "ID", "IE", "IL", "IN", "IS", "IT", "JO", "JP", "KW", "LB", "LI", "LT", "LU", "LV", "MA", "MC", "MT", "MX", "MY", "NI", "NL", "NO", "NZ", "OM", "PA", "PE", "PH", "PL", "PS", "PT", "PY", "QA", "RO", "SA", "SE", "SG", "SK", "SV", "TH", "TN", "TR", "TW", "US", "UY", "VN", "ZA"], "external_urls": {"spotify": "https://open.spotify.com/album/0SVNUvUTd8ab9VmvguVIQf"}, "href": "https://api.spotify.com/v1/albums/0SVNUvUTd8ab9VmvguVIQf", "id": "0SVNUvUTd8ab9VmvguVIQf", "images": [{"height": 640, "url": "https://i.scdn.co/image/0944d34d95fca7189974b01811ff2d3be7e63e76", "width": 640}, {"height": 300, "url": "https://i.scdn.co/image/e4299bb1c3383f59fb19afb59ed62f52d24e49ae", "width": 300}, {"height": 64, "url": "https://i.scdn.co/image/08c10fa0be8409b3a63d543f25aa2a294ed751e6", "width": 64}], "name": "Happy", "release_date": "2020-01-10", "release_date_precision": "day", "total_tracks": 7, "type": "album", "uri": "spotify:album:0SVNUvUTd8ab9VmvguVIQf"}, {"album_type": "single", "artists": [{"external_urls": {"spotify": "https://open.spotify.com/artist/1uNFoZAHBGtllmzznpCI3s"}, "href": "https://api.spotify.com/v1/artists/1uNFoZAHBGtllmzznpCI3s", "id": "1uNFoZAHBGtllmzznpCI3s", "name": "Justin Bieber", "type": "artist", "uri": "spotify:artist:1uNFoZAHBGtllmzznpCI3s"}], "available_markets": ["AD", "AE", "AR", "AT", "AU", "BE", "BG", "BH", "BO", "BR", "CA", "CH", "CL", "CO", "CR", "CY", "CZ", "DE", "DK", "DO", "DZ", "EC", "EE", "EG", "ES", "FI", "FR", "GB", "GR", "GT", "HK", "HN", "HU", "ID", "IE", "IL", "IN", "IS", "IT", "JO", "JP", "KW", "LB", "LI", "LT", "LU", "LV", "MA", "MC", "MT", "MX", "MY", "NI", "NL", "NO", "NZ", "OM", "PA", "PE", "PH", "PL", "PS", "PT", "PY", "QA", "RO", "SA", "SE", "SG", "SK", "SV", "TH", "TN", "TR", "TW", "US", "UY", "VN", "ZA"], "external_urls": {"spotify": "https://open.spotify.com/album/1SN6N3fNkZk5oXQ9X46QZ3"}, "href": "https://api.spotify.com/v1/albums/1SN6N3fNkZk5oXQ9X46QZ3", "id": "1SN6N3fNkZk5oXQ9X46QZ3", "images": [{"height": 640, "url": "https://i.scdn.co/image/fe55e78fd32d3b9a9548b0f5501707ff796b0655", "width": 640}, {"height": 300, "url": "https://i.scdn.co/image/c83c4acc6dc6f1a9234d26725cac607e12cea22f", "width": 300}, {"height": 64, "url": "https://i.scdn.co/image/2373b3eee73f654a2ba43c4e3e7ffebeb368d9e5", "width": 64}], "name": "Yummy", "release_date": "2020-01-03", "release_date_precision": "day", "total_tracks": 1, "type": "album", "uri": "spotify:album:1SN6N3fNkZk5oXQ9X46QZ3"}, {"album_type": "single", "artists": [{"external_urls": {"spotify": "https://open.spotify.com/artist/2a0uxJgbvvIRI4GX8pYfcr"}, "href": "https://api.spotify.com/v1/artists/2a0uxJgbvvIRI4GX8pYfcr", "id": "2a0uxJgbvvIRI4GX8pYfcr", "name": "J Hus", "type": "artist", "uri": "spotify:artist:2a0uxJgbvvIRI4GX8pYfcr"}], "available_markets": ["AD", "AE", "AR", "AT", "AU", "BE", "BG", "BH", "BO", "BR", "CA", "CH", "CL", "CO", "CR", "CY", "CZ", "DE", "DK", "DO", "DZ", "EC", "EE", "EG", "ES", "FI", "FR", "GB", "GR", "GT", "HK", "HN", "HU", "ID", "IE", "IL", "IN", "IS", "IT", "JO", "JP", "KW", "LB", "LI", "LT", "LU", "LV", "MA", "MC", "MT", "MX", "MY", "NI", "NL", "NO", "NZ", "OM", "PA", "PE", "PH", "PL", "PS", "PT", "PY", "QA", "RO", "SA", "SE", "SG", "SK", "SV", "TH", "TN", "TR", "TW", "US", "UY", "VN", "ZA"], "external_urls": {"spotify": "https://open.spotify.com/album/3E66MWtdbuBftO1WOB0WOT"}, "href": "https://api.spotify.com/v1/albums/3E66MWtdbuBftO1WOB0WOT", "id": "3E66MWtdbuBftO1WOB0WOT", "images": [{"height": 640, "url": "https://i.scdn.co/image/098d8fb0f80e2093b4ed908b5a3cd847aaf38d8e", "width": 640}, {"height": 300, "url": "https://i.scdn.co/image/dfd132c494bb65892256e0ff9d10c93e1420321d", "width": 300}, {"height": 64, "url": "https://i.scdn.co/image/b6c8f9cabe5c65a3c0eaf22a3abce219d6f2b62d", "width": 64}], "name": "No Denying", "release_date": "2019-12-27", "release_date_precision": "day", "total_tracks": 2, "type": "album", "uri": "spotify:album:3E66MWtdbuBftO1WOB0WOT"}, {"album_type": "album", "artists": [{"external_urls": {"spotify": "https://open.spotify.com/artist/5VadK1havLhK1OpKYsXv9y"}, "href": "https://api.spotify.com/v1/artists/5VadK1havLhK1OpKYsXv9y", "id": "5VadK1havLhK1OpKYsXv9y", "name": "D-Block Europe", "type": "artist", "uri": "spotify:artist:5VadK1havLhK1OpKYsXv9y"}], "available_markets": ["AD", "AE", "AR", "AT", "AU", "BE", "BG", "BH", "BO", "BR", "CA", "CH", "CL", "CO", "CR", "CY", "CZ", "DE", "DK", "DO", "DZ", "EC", "EE", "EG", "ES", "FI", "FR", "GB", "GR", "GT", "HK", "HN", "HU", "ID", "IE", "IL", "IN", "IS", "IT", "JO", "JP", "KW", "LB", "LI", "LT", "LU", "LV", "MA", "MC", "MT", "MX", "MY", "NI", "NL", "NO", "NZ", "OM", "PA", "PE", "PH", "PL", "PS", "PT", "PY", "QA", "RO", "SA", "SE", "SG", "SK", "SV", "TH", "TN", "TR", "TW", "US", "UY", "VN", "ZA"], "external_urls": {"spotify": "https://open.spotify.com/album/2ZFIVCR1y4X13GFSBBlsk4"}, "href": "https://api.spotify.com/v1/albums/2ZFIVCR1y4X13GFSBBlsk4", "id": "2ZFIVCR1y4X13GFSBBlsk4", "images": [{"height": 640, "url": "https://i.scdn.co/image/c999d4f5ce18ea6754ccbbb0859eb98cf3e2c356", "width": 640}, {"height": 300, "url": "https://i.scdn.co/image/13e052ea65334eb8543e806ef39fc9e24fcb119c", "width": 300}, {"height": 64, "url": "https://i.scdn.co/image/eaa98bfe48fadc491a4130201ed890a10ef17a9e", "width": 64}], "name": "Street Trauma", "release_date": "2019-12-27", "release_date_precision": "day", "total_tracks": 16, "type": "album", "uri": "spotify:album:2ZFIVCR1y4X13GFSBBlsk4"}, {"album_type": "album", "artists": [{"external_urls": {"spotify": "https://open.spotify.com/artist/7A8S43ryYdbWpJKeHRZRcq"}, "href": "https://api.spotify.com/v1/artists/7A8S43ryYdbWpJKeHRZRcq", "id": "7A8S43ryYdbWpJKeHRZRcq", "name": "JACKBOYS", "type": "artist", "uri": "spotify:artist:7A8S43ryYdbWpJKeHRZRcq"}, {"external_urls": {"spotify": "https://open.spotify.com/artist/0Y5tJX1MQlPlqiwlOH1tJY"}, "href": "https://api.spotify.com/v1/artists/0Y5tJX1MQlPlqiwlOH1tJY", "id": "0Y5tJX1MQlPlqiwlOH1tJY", "name": "Travis Scott", "type": "artist", "uri": "spotify:artist:0Y5tJX1MQlPlqiwlOH1tJY"}], "available_markets": ["AD", "AE", "AR", "AT", "AU", "BE", "BG", "BH", "BO", "BR", "CA", "CH", "CL", "CO", "CR", "CY", "CZ", "DE", "DK", "DO", "DZ", "EC", "EE", "EG", "ES", "FI", "FR", "GB", "GR", "GT", "HK", "HN", "HU", "ID", "IE", "IL", "IN", "IS", "IT", "JO", "JP", "KW", "LB", "LI", "LT", "LU", "LV", "MA", "MC", "MT", "MX", "MY", "NI", "NL", "NO", "NZ", "OM", "PA", "PE", "PH", "PL", "PS", "PT", "PY", "QA", "RO", "SA", "SE", "SG", "SK", "SV", "TH", "TN", "TR", "TW", "US", "UY", "VN", "ZA"], "external_urls": {"spotify": "https://open.spotify.com/album/1Sf8GsXG32t0jNrX11xqWx"}, "href": "https://api.spotify.com/v1/albums/1Sf8GsXG32t0jNrX11xqWx", "id": "1Sf8GsXG32t0jNrX11xqWx", "images": [{"height": 640, "url": "https://i.scdn.co/image/ac9d655765696e71bbbc935272dd095c5b30fd11", "width": 640}, {"height": 300, "url": "https://i.scdn.co/image/c1089cff998cefc067f23429f7849b425015605b", "width": 300}, {"height": 64, "url": "https://i.scdn.co/image/3fc333ff212c57ccbe16556c91c487aca2663c25", "width": 64}], "name": "JACKBOYS", "release_date": "2019-12-27", "release_date_precision": "day", "total_tracks": 7, "type": "album", "uri": "spotify:album:1Sf8GsXG32t0jNrX11xqWx"}, {"album_type": "album", "artists": [{"external_urls": {"spotify": "https://open.spotify.com/artist/2c9O21YLFy4tFI9zCVhbFg"}, "href": "https://api.spotify.com/v1/artists/2c9O21YLFy4tFI9zCVhbFg", "id": "2c9O21YLFy4tFI9zCVhbFg", "name": "Sunday Service Choir", "type": "artist", "uri": "spotify:artist:2c9O21YLFy4tFI9zCVhbFg"}], "available_markets": ["AD", "AE", "AR", "AT", "AU", "BE", "BG", "BH", "BO", "BR", "CA", "CH", "CL", "CO", "CR", "CY", "CZ", "DE", "DK", "DO", "DZ", "EC", "EE", "EG", "ES", "FI", "FR", "GB", "GR", "GT", "HK", "HN", "HU", "ID", "IE", "IL", "IN", "IS", "IT", "JO", "JP", "KW", "LB", "LI", "LT", "LU", "LV", "MA", "MC", "MT", "MX", "MY", "NI", "NL", "NO", "NZ", "OM", "PA", "PE", "PH", "PL", "PS", "PT", "PY", "QA", "RO", "SA", "SE", "SG", "SK", "SV", "TH", "TN", "TR", "TW", "US", "UY", "VN", "ZA"], "external_urls": {"spotify": "https://open.spotify.com/album/65zhpgwMMRxncpa7zHckQ6"}, "href": "https://api.spotify.com/v1/albums/65zhpgwMMRxncpa7zHckQ6", "id": "65zhpgwMMRxncpa7zHckQ6", "images": [{"height": 640, "url": "https://i.scdn.co/image/9c547447cbc8e96a1ea54053e7e4d7550e87f623", "width": 640}, {"height": 300, "url": "https://i.scdn.co/image/5f1d896da59cd17f59ef00258c3699cde7788181", "width": 300}, {"height": 64, "url": "https://i.scdn.co/image/c3d7fa35a7d58b218f9edc05018a36da3a1b40c2", "width": 64}], "name": "Jesus Is Born", "release_date": "2019-12-25", "release_date_precision": "day", "total_tracks": 19, "type": "album", "uri": "spotify:album:65zhpgwMMRxncpa7zHckQ6"}, {"album_type": "album", "artists": [{"external_urls": {"spotify": "https://open.spotify.com/artist/66CXWjxzNUsdJxJ2JdwvnR"}, "href": "https://api.spotify.com/v1/artists/66CXWjxzNUsdJxJ2JdwvnR", "id": "66CXWjxzNUsdJxJ2JdwvnR", "name": "Ariana Grande", "type": "artist", "uri": "spotify:artist:66CXWjxzNUsdJxJ2JdwvnR"}], "available_markets": ["AD", "AE", "AR", "AT", "AU", "BE", "BG", "BH", "BO", "BR", "CA", "CH", "CL", "CO", "CR", "CY", "CZ", "DE", "DK", "DO", "DZ", "EC", "EE", "EG", "ES", "FI", "FR", "GB", "GR", "GT", "HK", "HN", "HU", "ID", "IE", "IL", "IN", "IS", "IT", "JO", "JP", "KW", "LB", "LI", "LT", "LU", "LV", "MA", "MC", "MT", "MX", "MY", "NI", "NL", "NO", "NZ", "OM", "PA", "PE", "PH", "PL", "PS", "PT", "PY", "QA", "RO", "SA", "SE", "SG", "SK", "SV", "TH", "TN", "TR", "TW", "US", "UY", "VN", "ZA"], "external_urls": {"spotify": "https://open.spotify.com/album/5UACk85y1hNRSUtY0ss8pb"}, "href": "https://api.spotify.com/v1/albums/5UACk85y1hNRSUtY0ss8pb", "id": "5UACk85y1hNRSUtY0ss8pb", "images": [{"height": 640, "url": "https://i.scdn.co/image/ffb5c921ceb0e724b7ebe4c89b98f9c59de45ce0", "width": 640}, {"height": 300, "url": "https://i.scdn.co/image/79c385e4f75db0ea91798c0852a7966b9aa75f89", "width": 300}, {"height": 64, "url": "https://i.scdn.co/image/8e59dcdf76acd0ab9eafe5c5baeea0bd8dcb2511", "width": 64}], "name": "k bye for now (swt live)", "release_date": "2019-12-23", "release_date_precision": "day", "total_tracks": 32, "type": "album", "uri": "spotify:album:5UACk85y1hNRSUtY0ss8pb"}], "limit": 10, "next": "https://api.spotify.com/v1/browse/new-releases?country=GB&offset=15&limit=10", "offset": 5, "previous": "https://api.spotify.com/v1/browse/new-releases?country=GB&offset=0&limit=10", "total": 100}}